{
   "labels": [
      {
         "label_type": "polygon", 
         "label_class": "car", 
         "vertices": [
            {
               "y": 501.07344681109237, 
               "x": 545.3845222912487
            }, 
            {
               "y": 502.51497297965693, 
               "x": 567.7886019813003
            }, 
            {
               "y": 496.31620718994014, 
               "x": 654.5713230373354
            }, 
            {
               "y": 487.1594246974167, 
               "x": 657.1865225035856
            }, 
            {
               "y": 483.8467420520785, 
               "x": 659.6710344875892
            }, 
            {
               "y": 480.53405940674037, 
               "x": 662.5696318022601
            }, 
            {
               "y": 471.0100968013931, 
               "x": 662.1555464715929
            }, 
            {
               "y": 464.38473151071673, 
               "x": 667.5386557702674
            }, 
            {
               "y": 456.93119555870584, 
               "x": 675.4062770529456
            }, 
            {
               "y": 403.51418790262767, 
               "x": 676.2344477142801
            }, 
            {
               "y": 376.8540417986028, 
               "x": 672.4167339712284
            }, 
            {
               "y": 374.86101307745804, 
               "x": 666.7698192613183
            }, 
            {
               "y": 372.8679843563133, 
               "x": 664.1124476331253
            }, 
            {
               "y": 342.64038208561766, 
               "x": 662.4515903655046
            }, 
            {
               "y": 334.6682672010386, 
               "x": 657.1368471091185
            }, 
            {
               "y": 333.67175284046624, 
               "x": 642.1891317005328
            }, 
            {
               "y": 336.9934673757075, 
               "x": 564.1288401223628
            }, 
            {
               "y": 339.98301045742465, 
               "x": 550.8419819813978
            }, 
            {
               "y": 352.6055256913415, 
               "x": 541.2090098291981
            }, 
            {
               "y": 366.88889819287897, 
               "x": 539.2159811080533
            }, 
            {
               "y": 375.85752743803044, 
               "x": 534.2334093051913
            }, 
            {
               "y": 379.84358488031995, 
               "x": 531.5760376769983
            }, 
            {
               "y": 379.84358488031995, 
               "x": 525.596951513564
            }, 
            {
               "y": 386.15484249727837, 
               "x": 524.2682656994675
            }, 
            {
               "y": 397.1165004635746, 
               "x": 524.9326086065158
            }, 
            {
               "y": 400.77038645234, 
               "x": 526.5934658741364
            }, 
            {
               "y": 402.76341517348476, 
               "x": 528.5864945952812
            }, 
            {
               "y": 402.76341517348476, 
               "x": 533.5690663981431
            }, 
            {
               "y": 413.39290168625683, 
               "x": 532.9047234910948
            }, 
            {
               "y": 434.3197032582769, 
               "x": 535.2299236657637
            }, 
            {
               "y": 455.91084773734514, 
               "x": 538.5516382010051
            }, 
            {
               "y": 477.16982076288934, 
               "x": 541.2090098291981
            }
         ], 
         "object_id": 2
      }, 
      {
         "label_type": "polygon", 
         "label_class": "car", 
         "vertices": [
            {
               "y": 504.1135047092104, 
               "x": 256.20816133435136
            }, 
            {
               "y": 503.36814951581096, 
               "x": 274.0966859759384
            }, 
            {
               "y": 504.8588599026099, 
               "x": 365.7753747640719
            }, 
            {
               "y": 501.24110145397503, 
               "x": 372.67630190520435
            }, 
            {
               "y": 470.06508442398774, 
               "x": 409.7144759835653
            }, 
            {
               "y": 459.14015537929134, 
               "x": 410.5138610356163
            }, 
            {
               "y": 449.8139964386969, 
               "x": 412.37909282373516
            }, 
            {
               "y": 445.8170711784421, 
               "x": 413.4449395598031
            }, 
            {
               "y": 408.29605594100826, 
               "x": 415.28368863594704
            }, 
            {
               "y": 405.94479995180535, 
               "x": 420.6274522477718
            }, 
            {
               "y": 397.6085287173586, 
               "x": 420.6274522477718
            }, 
            {
               "y": 389.27225748291187, 
               "x": 420.8412027922448
            }, 
            {
               "y": 387.98975421607395, 
               "x": 418.4899468030419
            }, 
            {
               "y": 388.8447563939659, 
               "x": 415.28368863594704
            }, 
            {
               "y": 388.6310058494929, 
               "x": 408.44367121281124
            }, 
            {
               "y": 364.9046954129907, 
               "x": 408.01617012386527
            }, 
            {
               "y": 355.927172545125, 
               "x": 404.80991195677035
            }, 
            {
               "y": 347.1634002217323, 
               "x": 398.61114616705356
            }, 
            {
               "y": 299.68854040372105, 
               "x": 342.9223916272792
            }, 
            {
               "y": 275.44002429645974, 
               "x": 318.0095326129696
            }, 
            {
               "y": 271.45396685417023, 
               "x": 305.71918883257695
            }, 
            {
               "y": 269.4609381330255, 
               "x": 289.7749590634188
            }, 
            {
               "y": 269.7931095865496, 
               "x": 250.9108990010959
            }, 
            {
               "y": 275.44002429645974, 
               "x": 216.6972392881108
            }, 
            {
               "y": 281.0869390063699, 
               "x": 200.42083806542857
            }, 
            {
               "y": 285.94181061455794, 
               "x": 194.99583152615955
            }, 
            {
               "y": 304.9897358252524, 
               "x": 187.54229557414865
            }, 
            {
               "y": 326.93625835061783, 
               "x": 182.5732716061414
            }, 
            {
               "y": 381.0578509717219, 
               "x": 174.75433260012068
            }, 
            {
               "y": 431.86249890835086, 
               "x": 174.0342885210919
            }, 
            {
               "y": 458.76844433581357, 
               "x": 175.230108317868
            }, 
            {
               "y": 483.88066006811215, 
               "x": 177.62174791142027
            }, 
            {
               "y": 489.85975905199274, 
               "x": 187.7862161840173
            }, 
            {
               "y": 489.85975905199274, 
               "x": 211.10470222115165
            }, 
            {
               "y": 491.05557884876885, 
               "x": 232.0315486647338
            }, 
            {
               "y": 501.817957019754, 
               "x": 245.18556642927115
            }
         ], 
         "object_id": 4
      }, 
      {
         "label_type": "polygon", 
         "label_class": null, 
         "vertices": [
            {
               "y": 423.8643579685482, 
               "x": 607.7162214076819
            }, 
            {
               "y": 423.8643579685482, 
               "x": 607.7162214076819
            }
         ], 
         "object_id": 5
      }, 
      {
         "label_type": "polygon", 
         "label_class": "car", 
         "vertices": [
            {
               "y": 424.7492065154122, 
               "x": 459.22396131614954
            }, 
            {
               "y": 416.90340708688194, 
               "x": 458.18772365577763
            }, 
            {
               "y": 410.389913221687, 
               "x": 460.11216502503976
            }, 
            {
               "y": 406.68906443464437, 
               "x": 462.18464034578363
            }, 
            {
               "y": 406.9851323376078, 
               "x": 468.8461681624603
            }, 
            {
               "y": 407.7253020950163, 
               "x": 476.24786573654546
            }, 
            {
               "y": 413.79469410576615, 
               "x": 480.54085032951485
            }, 
            {
               "y": 419.5680182135526, 
               "x": 481.7251219413685
            }, 
            {
               "y": 427.11774973911946, 
               "x": 481.2810200869234
            }, 
            {
               "y": 430.22646272023525, 
               "x": 479.9487145235881
            }, 
            {
               "y": 431.1021329153019, 
               "x": 477.1606518774587
            }, 
            {
               "y": 431.4955141379787, 
               "x": 461.6220935817258
            }
         ], 
         "object_id": 6
      }, 
      {
         "label_type": "polygon", 
         "label_class": "car", 
         "vertices": [
            {
               "y": 412.9099389852224, 
               "x": 481.143022964513
            }, 
            {
               "y": 412.77239165905166, 
               "x": 484.7192534449529
            }, 
            {
               "y": 413.73522294224705, 
               "x": 489.67095718710056
            }, 
            {
               "y": 417.72409540119924, 
               "x": 492.97209301519894
            }, 
            {
               "y": 422.1256098386638, 
               "x": 493.52228231988204
            }, 
            {
               "y": 425.56429299293296, 
               "x": 489.8085045132713
            }, 
            {
               "y": 425.97693497144525, 
               "x": 483.61887483558684
            }, 
            {
               "y": 425.0141036882499, 
               "x": 482.10585424770835
            }
         ], 
         "object_id": 8
      }, 
      {
         "label_type": "polygon", 
         "label_class": "car", 
         "vertices": [
            {
               "y": 420.19994727227305, 
               "x": 503.563237130348
            }, 
            {
               "y": 412.3597496805394, 
               "x": 504.6636157397141
            }, 
            {
               "y": 410.5716344403194, 
               "x": 508.65248819866633
            }, 
            {
               "y": 412.3597496805394, 
               "x": 514.5670232240093
            }, 
            {
               "y": 415.66088550863776, 
               "x": 519.2436323138154
            }, 
            {
               "y": 421.3003258816392, 
               "x": 518.5558956829616
            }, 
            {
               "y": 424.87655636207916, 
               "x": 518.5558956829616
            }, 
            {
               "y": 425.0141036882499, 
               "x": 505.2138050443972
            }
         ], 
         "object_id": 10
      }, 
      {
         "label_type": "polygon", 
         "label_class": "car", 
         "vertices": [
            {
               "y": 442.5263581302611, 
               "x": 757.0110772274272
            }, 
            {
               "y": 443.96023883599526, 
               "x": 777.5633673429503
            }, 
            {
               "y": 443.96023883599526, 
               "x": 784.7327708716211
            }, 
            {
               "y": 443.64159867916544, 
               "x": 809.9053432611764
            }, 
            {
               "y": 439.97723687562257, 
               "x": 810.542623574836
            }, 
            {
               "y": 436.9501553857393, 
               "x": 812.9324247510597
            }, 
            {
               "y": 433.60443373902626, 
               "x": 815.9595062409429
            }, 
            {
               "y": 423.0893085636424, 
               "x": 815.6408660841131
            }, 
            {
               "y": 411.9369030745989, 
               "x": 814.3663054567938
            }, 
            {
               "y": 401.42177789921504, 
               "x": 812.1358243589851
            }, 
            {
               "y": 395.36761491944856, 
               "x": 796.841096831154
            }, 
            {
               "y": 395.68625507627837, 
               "x": 787.9191724399193
            }, 
            {
               "y": 397.12013578201254, 
               "x": 769.1194031869602
            }, 
            {
               "y": 407.95390111422626, 
               "x": 766.2516417754919
            }, 
            {
               "y": 416.0792251133865, 
               "x": 766.2516417754919
            }, 
            {
               "y": 416.3978652702163, 
               "x": 745.6993516599689
            }, 
            {
               "y": 416.7165054270461, 
               "x": 743.3095504837453
            }, 
            {
               "y": 422.7706684068126, 
               "x": 743.1502304053304
            }, 
            {
               "y": 428.984151464994, 
               "x": 744.9027512678944
            }, 
            {
               "y": 430.89599240597283, 
               "x": 750.1603138555863
            }, 
            {
               "y": 437.90607585622877, 
               "x": 752.0721547965652
            }, 
            {
               "y": 442.04839789501636, 
               "x": 753.5060355022994
            }
         ], 
         "object_id": 11
      }, 
      {
         "label_type": "polygon", 
         "label_class": "car", 
         "vertices": [
            {
               "y": 420.6449066238521, 
               "x": 173.61990628029045
            }, 
            {
               "y": 419.5761539014871, 
               "x": 167.63489103504668
            }, 
            {
               "y": 415.94239464544626, 
               "x": 164.0011317790058
            }, 
            {
               "y": 408.4611255888915, 
               "x": 163.14612960111384
            }, 
            {
               "y": 401.19360707680977, 
               "x": 165.06988450137075
            }, 
            {
               "y": 397.7735983652419, 
               "x": 170.62739865766855
            }, 
            {
               "y": 396.27734455393096, 
               "x": 173.83365682476344
            }
         ], 
         "object_id": 12
      }, 
      {
         "label_type": "polygon", 
         "label_class": "car", 
         "vertices": [
            {
               "y": 364.1194686897136, 
               "x": 0.5676105998748393
            }, 
            {
               "y": 364.86222584366334, 
               "x": 13.194482217020827
            }, 
            {
               "y": 366.8429115875294, 
               "x": 19.879296602568704
            }, 
            {
               "y": 374.7656545629935, 
               "x": 18.14619657668592
            }, 
            {
               "y": 378.7270260507256, 
               "x": 18.14619657668592
            }, 
            {
               "y": 379.9649546406419, 
               "x": 29.039968167949127
            }, 
            {
               "y": 384.1739118463572, 
               "x": 36.46753970744677
            }, 
            {
               "y": 398.78146920736924, 
               "x": 39.68615404122908
            }, 
            {
               "y": 412.39868369644824, 
               "x": 38.4482254513128
            }, 
            {
               "y": 412.6462694144315, 
               "x": 31.26823962979842
            }, 
            {
               "y": 416.6076409021636, 
               "x": 26.564110988116582
            }, 
            {
               "y": 417.84556949207985, 
               "x": 22.602739500384505
            }, 
            {
               "y": 415.8648837482138, 
               "x": 10.223453601221772
            }, 
            {
               "y": 416.11246946619707, 
               "x": 1.557953471807858
            }, 
            {
               "y": 416.36005518418034, 
               "x": 0.5676105998748393
            }
         ], 
         "object_id": 13
      }, 
      {
         "label_type": "polygon", 
         "label_class": "car", 
         "vertices": [
            {
               "y": 408.1133172008897, 
               "x": 71.7505538459996
            }, 
            {
               "y": 403.9320941667606, 
               "x": 73.3765850259387
            }, 
            {
               "y": 400.4477416383197, 
               "x": 78.02238839719323
            }, 
            {
               "y": 399.98316130119423, 
               "x": 81.50674092563413
            }, 
            {
               "y": 402.3060629868215, 
               "x": 86.15254429688866
            }, 
            {
               "y": 402.77064332394696, 
               "x": 91.7275083423941
            }, 
            {
               "y": 405.0935450095742, 
               "x": 92.88895918520774
            }, 
            {
               "y": 411.59766972933056, 
               "x": 92.65666901664501
            }, 
            {
               "y": 412.52683040358147, 
               "x": 80.80987041994595
            }, 
            {
               "y": 412.99141074070695, 
               "x": 71.7505538459996
            }, 
            {
               "y": 412.06225006645604, 
               "x": 69.65994232893506
            }
         ], 
         "object_id": 14
      }, 
      {
         "label_type": "polygon", 
         "label_class": "marking", 
         "vertices": [
            {
               "y": 479.7794557479097, 
               "x": 410.54989665286666
            }, 
            {
               "y": 468.2794557479097, 
               "x": 428.79989665286666
            }, 
            {
               "y": 468.7794557479097, 
               "x": 435.04989665286666
            }, 
            {
               "y": 459.7794557479097, 
               "x": 442.29989665286666
            }, 
            {
               "y": 461.7794557479097, 
               "x": 432.04989665286666
            }, 
            {
               "y": 464.7794557479097, 
               "x": 422.29989665286666
            }, 
            {
               "y": 467.5294557479097, 
               "x": 419.54989665286666
            }, 
            {
               "y": 468.2794557479097, 
               "x": 423.54989665286666
            }, 
            {
               "y": 472.2794557479097, 
               "x": 409.54989665286666
            }, 
            {
               "y": 479.7794557479097, 
               "x": 398.29989665286666
            }
         ], 
         "object_id": 23
      }, 
      {
         "label_type": "polygon", 
         "label_class": "marking", 
         "vertices": [
            {
               "y": 551.501370944013, 
               "x": 1.9347216404338128
            }, 
            {
               "y": 541.4002764498205, 
               "x": 36.90004873571591
            }, 
            {
               "y": 504.49243118257823, 
               "x": 169.37978806339586
            }, 
            {
               "y": 493.2258257852095, 
               "x": 213.66920238408653
            }, 
            {
               "y": 490.8948039788574, 
               "x": 220.27376416875092
            }, 
            {
               "y": 490.8948039788574, 
               "x": 232.70588046929566
            }, 
            {
               "y": 495.9453512259537, 
               "x": 237.36792408199994
            }, 
            {
               "y": 524.6946201709634, 
               "x": 133.2489500649377
            }, 
            {
               "y": 561.6024654382056, 
               "x": 6.985268887530116
            }, 
            {
               "y": 563.1564799757738, 
               "x": 0.7692107372577427
            }
         ], 
         "object_id": 32
      }, 
      {
         "label_type": "polygon", 
         "label_class": "marking", 
         "vertices": [
            {
               "y": 559.8977272652393, 
               "x": 14.894403962403793
            }, 
            {
               "y": 537.0276246135836, 
               "x": 97.4958335395599
            }, 
            {
               "y": 515.6330124784125, 
               "x": 176.5718664668634
            }, 
            {
               "y": 497.94487983326206, 
               "x": 239.74376877097237
            }, 
            {
               "y": 450.55338465763526, 
               "x": 413.53865442319164
            }, 
            {
               "y": 437.1695528079468, 
               "x": 459.6029226872855
            }, 
            {
               "y": 435.30616482444816, 
               "x": 465.56576423448115
            }, 
            {
               "y": 439.7782959848449, 
               "x": 456.0624855186381
            }, 
            {
               "y": 450.0269298940874, 
               "x": 423.0805182107121
            }, 
            {
               "y": 501.09944755622695, 
               "x": 241.6415237080723
            }, 
            {
               "y": 554.7129491023261, 
               "x": 47.389706512061025
            }, 
            {
               "y": 562.0945181557745, 
               "x": 14.755401223131134
            }
         ], 
         "object_id": 33
      }, 
      {
         "label_type": "polygon", 
         "label_class": "marking", 
         "vertices": [
            {
               "y": 559.1267606242903, 
               "x": 439.1432411336681
            }, 
            {
               "y": 457.4265425576241, 
               "x": 501.69337525431683
            }, 
            {
               "y": 425.7991041362634, 
               "x": 521.7580117751714
            }, 
            {
               "y": 425.94858161086046, 
               "x": 523.7012189449326
            }, 
            {
               "y": 434.6182751374873, 
               "x": 519.3663721816192
            }, 
            {
               "y": 457.78728370002455, 
               "x": 507.2586967392611
            }, 
            {
               "y": 480.1291251138523, 
               "x": 494.1371169098334
            }, 
            {
               "y": 518.258009917385, 
               "x": 471.9487078420914
            }, 
            {
               "y": 564.3001489636217, 
               "x": 450.8098641290393
            }, 
            {
               "y": 562.8522829558784, 
               "x": 438.9373628655443
            }
         ], 
         "object_id": 34
      }, 
      {
         "label_type": "polygon", 
         "label_class": "trafficlight", 
         "vertices": [
            {
               "y": 403.60320370964496, 
               "x": 491.32638166391587
            }, 
            {
               "y": 399.0891445003361, 
               "x": 491.7689364883579
            }, 
            {
               "y": 399.0891445003361, 
               "x": 493.98171061056814
            }, 
            {
               "y": 400.4168089736622, 
               "x": 496.19448473277834
            }, 
            {
               "y": 403.51469274475653, 
               "x": 495.7519299083363
            }, 
            {
               "y": 406.52406555096246, 
               "x": 495.22086411900585
            }, 
            {
               "y": 406.1700216914088, 
               "x": 491.23787069902744
            }
         ], 
         "object_id": 35
      }, 
      {
         "label_type": "polygon", 
         "label_class": "trafficlight", 
         "vertices": [
            {
               "y": 408.1172629189538, 
               "x": 477.9612259657661
            }, 
            {
               "y": 402.8951159905377, 
               "x": 477.9612259657661
            }, 
            {
               "y": 402.8951159905377, 
               "x": 480.52804394752997
            }, 
            {
               "y": 404.045758534087, 
               "x": 481.7671974559677
            }, 
            {
               "y": 408.2942848487306, 
               "x": 481.7671974559677
            }, 
            {
               "y": 409.9759931816104, 
               "x": 480.52804394752997
            }, 
            {
               "y": 409.0908835327263, 
               "x": 478.3152698253198
            }
         ], 
         "object_id": 36
      }, 
      {
         "label_type": "polygon", 
         "label_class": "marking", 
         "vertices": [
            {
               "y": 435.7584935750687, 
               "x": 491.33500717468
            }, 
            {
               "y": 435.86101518896834, 
               "x": 494.51317720556733
            }, 
            {
               "y": 432.4778019302818, 
               "x": 498.40899853375174
            }, 
            {
               "y": 432.4778019302818, 
               "x": 494.9232636611657
            }, 
            {
               "y": 432.9904099997798, 
               "x": 493.8980475221698
            }
         ], 
         "object_id": 37
      }, 
      {
         "label_type": "polygon", 
         "label_class": "road", 
         "vertices": [
            {
               "y": 548.6184123271214, 
               "x": 1.7080886578996586
            }, 
            {
               "y": 522.3930642843126, 
               "x": 92.11652533179327
            }, 
            {
               "y": 496.62781006681615, 
               "x": 186.20571260818636
            }, 
            {
               "y": 490.18649651244203, 
               "x": 208.06016931052704
            }, 
            {
               "y": 491.33673107572315, 
               "x": 232.90523587739858
            }, 
            {
               "y": 502.6090297958778, 
               "x": 244.40758151020947
            }, 
            {
               "y": 505.5996396604086, 
               "x": 278.4545245833297
            }, 
            {
               "y": 505.5996396604086, 
               "x": 365.6423044800363
            }, 
            {
               "y": 501.45879523259674, 
               "x": 374.38408716097257
            }, 
            {
               "y": 475.92358792775656, 
               "x": 403.6000450683122
            }, 
            {
               "y": 469.02218054807, 
               "x": 411.42164009862364
            }, 
            {
               "y": 445.32734854447955, 
               "x": 414.41224996315447
            }, 
            {
               "y": 438.425941164793, 
               "x": 417.4028598276853
            }, 
            {
               "y": 432.9048152610438, 
               "x": 442.70802021986924
            }, 
            {
               "y": 430.1442523091692, 
               "x": 452.83008437674283
            }, 
            {
               "y": 428.07383009526325, 
               "x": 459.9615386690856
            }, 
            {
               "y": 431.8555474087155, 
               "x": 461.7405480021832
            }, 
            {
               "y": 431.41419591057013, 
               "x": 480.0566351752142
            }, 
            {
               "y": 428.5454111726255, 
               "x": 481.7117032932591
            }, 
            {
               "y": 427.00068092911687, 
               "x": 483.14609566223146
            }, 
            {
               "y": 426.11797793282625, 
               "x": 489.65603025987497
            }, 
            {
               "y": 425.0145991874629, 
               "x": 500.1381283408265
            }, 
            {
               "y": 424.9042613129266, 
               "x": 507.53076593476067
            }, 
            {
               "y": 424.79392343839027, 
               "x": 520.8816487536568
            }, 
            {
               "y": 424.9042613129266, 
               "x": 528.1639484730547
            }, 
            {
               "y": 426.5023080441047, 
               "x": 533.809632174427
            }, 
            {
               "y": 501.57635885318626, 
               "x": 544.5344965757243
            }, 
            {
               "y": 501.97357605323435, 
               "x": 551.6844061765892
            }, 
            {
               "y": 503.4900659037755, 
               "x": 572.4486157158617
            }, 
            {
               "y": 498.49007662482757, 
               "x": 629.1151608772713
            }, 
            {
               "y": 497.3789678961725, 
               "x": 657.448433457976
            }, 
            {
               "y": 482.3790000593288, 
               "x": 663.0039771012514
            }, 
            {
               "y": 474.04568459441566, 
               "x": 669.670629473182
            }, 
            {
               "y": 499.60118535348266, 
               "x": 749.1149035720208
            }, 
            {
               "y": 532.9344472131353, 
               "x": 855.2257871585817
            }, 
            {
               "y": 578.0732521875665, 
               "x": 976.5638873322687
            }, 
            {
               "y": 591.3890216832409, 
               "x": 1022.810140698895
            }, 
            {
               "y": 659.4967741553344, 
               "x": 1023.7694048182202
            }, 
            {
               "y": 658.967624672685, 
               "x": 2.392781515824809
            }
         ], 
         "object_id": 38
      }, 
      {
         "label_type": "polygon", 
         "label_class": null, 
         "vertices": [
            {
               "y": 263.69033085570516, 
               "x": 709.4210546482346
            }
         ], 
         "object_id": 40
      }, 
      {
         "label_type": "polygon", 
         "label_class": "road", 
         "vertices": [
            {
               "y": 442.60354751763066, 
               "x": 676.9858680689551
            }, 
            {
               "y": 429.9810322837138, 
               "x": 677.3180395224792
            }, 
            {
               "y": 430.9775466442862, 
               "x": 684.293640046486
            }, 
            {
               "y": 431.64188955133443, 
               "x": 698.5770125480234
            }, 
            {
               "y": 431.9740610048586, 
               "x": 713.5247279566091
            }, 
            {
               "y": 432.97057536543093, 
               "x": 738.4375869709187
            }, 
            {
               "y": 433.3027468189551, 
               "x": 750.0635878442632
            }, 
            {
               "y": 440.27834734296175, 
               "x": 751.7244451118838
            }, 
            {
               "y": 442.8671316192722, 
               "x": 753.4466502329094
            }, 
            {
               "y": 444.79157298853437, 
               "x": 809.6995517959568
            }, 
            {
               "y": 444.34747113408923, 
               "x": 810.5877555048471
            }, 
            {
               "y": 441.23875815297345, 
               "x": 810.8838234078105
            }, 
            {
               "y": 437.98201122037597, 
               "x": 812.6602308255909
            }, 
            {
               "y": 436.94577356000406, 
               "x": 815.4728759037433
            }, 
            {
               "y": 440.4985883955649, 
               "x": 850.4088884534254
            }, 
            {
               "y": 443.0151655707539, 
               "x": 905.3294844531376
            }, 
            {
               "y": 446.8640483092782, 
               "x": 948.9995001402402
            }, 
            {
               "y": 447.6042180666867, 
               "x": 988.0804633314101
            }, 
            {
               "y": 450.0220816297564, 
               "x": 1023.7765179716774
            }, 
            {
               "y": 519.9645529112914, 
               "x": 1023.0955612467678
            }, 
            {
               "y": 507.26774334496434, 
               "x": 963.8437832705747
            }, 
            {
               "y": 490.3386639231949, 
               "x": 877.6593789415665
            }, 
            {
               "y": 480.7198687971895, 
               "x": 858.0370368845156
            }, 
            {
               "y": 468.4078110359026, 
               "x": 790.7054710024779
            }, 
            {
               "y": 447.631213563731, 
               "x": 697.595534182746
            }
         ], 
         "object_id": 41
      }
   ], 
   "complete": null, 
   "image_filename": "sg_0085.png"
}